<svg xmlns="http://www.w3.org/2000/svg" width="10.251" height="10.25" viewBox="0 0 10.251 10.25">
  <path id="mala_strzalka_lewa" data-name="mala strzalka lewa" d="M16.251,10.485h-7.8L12.035,6.9l-.91-.9L6,11.125l5.125,5.125.9-.9L8.454,11.766h7.8Z" transform="translate(-6 -6)"/>
</svg>
