<svg xmlns="http://www.w3.org/2000/svg" width="8.172" height="8.172" viewBox="0 0 8.172 8.172">
  <path id="plus" d="M880.071,537.949h-3.437v-3.456h-1.278v3.456H871.9v1.278h3.456v3.438h1.278v-3.437h3.438Z" transform="translate(-871.899 -534.493)" fill="#0d0d0d"/>
</svg>
